module gitlab.com/cyverse/wiretap-microservice

go 1.23.0

toolchain go1.23.6

require (
	github.com/cloudevents/sdk-go/v2 v2.15.2
	github.com/kelseyhightower/envconfig v1.4.0
	github.com/nats-io/nats-server/v2 v2.10.12
	github.com/nats-io/nats.go v1.33.1
	github.com/nats-io/stan.go v0.10.4
	github.com/rs/xid v1.5.0
	github.com/sirupsen/logrus v1.9.3
	github.com/stretchr/testify v1.10.0
	gitlab.com/cyverse/cacao-common v0.0.0-20250228023152-7fe47f6172d1
)

require (
	github.com/davecgh/go-spew v1.1.1 // indirect
	github.com/gogo/protobuf v1.3.2 // indirect
	github.com/google/go-cmp v0.6.0 // indirect
	github.com/google/uuid v1.6.0 // indirect
	github.com/hashicorp/go-hclog v1.6.2 // indirect
	github.com/hashicorp/go-msgpack/v2 v2.1.2 // indirect
	github.com/hashicorp/raft v1.6.1 // indirect
	github.com/json-iterator/go v1.1.12 // indirect
	github.com/klauspost/compress v1.17.7 // indirect
	github.com/minio/highwayhash v1.0.2 // indirect
	github.com/modern-go/concurrent v0.0.0-20180306012644-bacd9c7ef1dd // indirect
	github.com/modern-go/reflect2 v1.0.2 // indirect
	github.com/nats-io/jwt/v2 v2.5.5 // indirect
	github.com/nats-io/nkeys v0.4.7 // indirect
	github.com/nats-io/nuid v1.0.1 // indirect
	github.com/pmezard/go-difflib v1.0.0 // indirect
	github.com/prometheus/procfs v0.13.0 // indirect
	go.etcd.io/bbolt v1.3.9 // indirect
	go.uber.org/atomic v1.4.0 // indirect
	go.uber.org/multierr v1.1.0 // indirect
	go.uber.org/zap v1.10.0 // indirect
	golang.org/x/crypto v0.35.0 // indirect
	golang.org/x/sys v0.30.0 // indirect
	golang.org/x/time v0.5.0 // indirect
	gopkg.in/check.v1 v1.0.0-20201130134442-10cb98267c6c // indirect
	gopkg.in/yaml.v3 v3.0.1 // indirect
)
